EESchema Schematic File Version 2
LIBS:device
LIBS:display
LIBS:hetii
LIBS:atmel
LIBS:transistors
LIBS:power
LIBS:powerint
LIBS:xilinx
LIBS:video
LIBS:valves
LIBS:ttl_ieee
LIBS:transf
LIBS:texas
LIBS:supertex
LIBS:stm32
LIBS:stm8
LIBS:special
LIBS:siliconi
LIBS:sensors
LIBS:rfcom
LIBS:relays
LIBS:regul
LIBS:references
LIBS:pspice
LIBS:philips
LIBS:opto
LIBS:nxp_armmcu
LIBS:msp430
LIBS:motorola
LIBS:microcontrollers
LIBS:microchip_pic18mcu
LIBS:microchip_pic16mcu
LIBS:microchip_pic12mcu
LIBS:microchip_pic10mcu
LIBS:microchip1
LIBS:microchip
LIBS:memory
LIBS:logo
LIBS:linear
LIBS:ir
LIBS:interface
LIBS:intel
LIBS:hc11
LIBS:graphic
LIBS:gennum
LIBS:ftdi
LIBS:elec-unifil
LIBS:dsp
LIBS:digital-audio
LIBS:dc-dc
LIBS:cypress
LIBS:contrib
LIBS:conn
LIBS:cmos_ieee
LIBS:cmos4000
LIBS:brooktre
LIBS:audio
LIBS:analog_switches
LIBS:adc-dac
LIBS:actel
LIBS:ac-dc
LIBS:74xx
LIBS:74xgxx
LIBS:freq-cache
EELAYER 24 0
EELAYER END
$Descr A4 11693 8268
encoding utf-8
Sheet 1 1
Title ""
Date ""
Rev ""
Comp ""
Comment1 ""
Comment2 ""
Comment3 ""
Comment4 ""
$EndDescr
$Comp
L GND #PWR01
U 1 1 5429B5BE
P 1700 3800
F 0 "#PWR01" H 1700 3800 30  0001 C CNN
F 1 "GND" H 1700 3730 30  0001 C CNN
F 2 "" H 1700 3800 60  0000 C CNN
F 3 "" H 1700 3800 60  0000 C CNN
	1    1700 3800
	1    0    0    -1  
$EndComp
$Comp
L HCMS291X DS1
U 1 1 54344B18
P 5175 1600
F 0 "DS1" H 6025 2100 40  0000 C CNN
F 1 "HCMS291X" H 5175 1725 40  0000 C CNN
F 2 "hetii:HCMS-291X__300" H 5150 1450 35  0000 C CIN
F 3 "" H 5325 1450 60  0000 C CNN
	1    5175 1600
	1    0    0    -1  
$EndComp
Entry Wire Line
	5825 650  5925 750 
Text Label 5925 1000 1    60   ~ 0
mosi
Entry Wire Line
	5700 650  5800 750 
Entry Wire Line
	3850 1600 3950 1500
Text Label 3600 1600 0    60   ~ 0
mosi
Entry Wire Line
	3850 1400 3950 1300
Text Label 3600 1400 0    60   ~ 0
rs
Text Label 5800 1000 1    60   ~ 0
rs
Entry Wire Line
	5450 650  5550 750 
Entry Wire Line
	3850 1800 3950 1700
Text Label 3600 1800 0    60   ~ 0
clk
Text Label 5550 1000 1    60   ~ 0
clk
Entry Wire Line
	5325 650  5425 750 
Text Label 5425 1000 1    60   ~ 0
ce
Entry Wire Line
	3850 1500 3950 1400
Text Label 3600 1500 0    60   ~ 0
ce
Entry Wire Line
	5075 650  5175 750 
Entry Wire Line
	4675 650  4775 750 
Text Label 5175 1000 1    60   ~ 0
GND
Text Label 4775 1000 1    60   ~ 0
+5V
Entry Wire Line
	3850 1300 3950 1200
Text Label 3600 1300 0    60   ~ 0
reset
Entry Wire Line
	4575 650  4675 750 
Text Label 4675 1000 1    60   ~ 0
reset
NoConn ~ 4550 1000
NoConn ~ 4425 1000
$Comp
L C C3
U 1 1 54358003
P 1600 2100
F 0 "C3" H 1600 2200 40  0000 L CNN
F 1 "100nF" H 1606 2015 40  0000 L CNN
F 2 "SMD_Packages:SMD-0805" H 1638 1950 30  0001 C CNN
F 3 "" H 1600 2100 60  0000 C CNN
	1    1600 2100
	1    0    0    -1  
$EndComp
$Comp
L GND #PWR02
U 1 1 54358069
P 1350 2400
F 0 "#PWR02" H 1350 2400 30  0001 C CNN
F 1 "GND" H 1350 2330 30  0001 C CNN
F 2 "" H 1350 2400 60  0000 C CNN
F 3 "" H 1350 2400 60  0000 C CNN
	1    1350 2400
	1    0    0    -1  
$EndComp
$Comp
L INDUCTOR L1
U 1 1 543582BE
P 1350 1300
F 0 "L1" V 1300 1300 40  0000 C CNN
F 1 "10uH" V 1450 1300 40  0000 C CNN
F 2 "SMD_Packages:SMD-1206" H 1350 1300 60  0001 C CNN
F 3 "" H 1350 1300 60  0000 C CNN
	1    1350 1300
	1    0    0    -1  
$EndComp
$Comp
L C C2
U 1 1 5435833F
P 1350 2100
F 0 "C2" H 1350 2200 40  0000 L CNN
F 1 "100nF" H 1356 2015 40  0000 L CNN
F 2 "SMD_Packages:SMD-1206" H 1388 1950 30  0001 C CNN
F 3 "" H 1350 2100 60  0000 C CNN
	1    1350 2100
	1    0    0    -1  
$EndComp
$Comp
L C C1
U 1 1 54358A8C
P 1100 2100
F 0 "C1" H 1100 2200 40  0000 L CNN
F 1 "100nF" H 1106 2015 40  0000 L CNN
F 2 "SMD_Packages:SMD-1206" H 1138 1950 30  0001 C CNN
F 3 "" H 1100 2100 60  0000 C CNN
	1    1100 2100
	1    0    0    -1  
$EndComp
Entry Wire Line
	1700 1000 1800 900 
Text Label 1100 1000 0    60   ~ 0
+5V
$Comp
L ZENER D3
U 1 1 5435AC34
P 4525 2750
F 0 "D3" H 4525 2850 50  0000 C CNN
F 1 "5,1V" H 4525 2650 40  0000 C CNN
F 2 "SMD_Packages:SMD-1206" H 4525 2750 60  0001 C CNN
F 3 "" H 4525 2750 60  0000 C CNN
	1    4525 2750
	0    -1   -1   0   
$EndComp
$Comp
L C C5
U 1 1 5435AD4A
P 4750 2750
F 0 "C5" H 4750 2850 40  0000 L CNN
F 1 "100nF" H 4756 2665 40  0000 L CNN
F 2 "SMD_Packages:SMD-1206" H 4788 2600 30  0001 C CNN
F 3 "" H 4750 2750 60  0000 C CNN
	1    4750 2750
	1    0    0    -1  
$EndComp
$Comp
L R R9
U 1 1 5435AD95
P 4975 2700
F 0 "R9" V 5055 2700 40  0000 C CNN
F 1 "R*" V 4982 2701 40  0000 C CNN
F 2 "SMD_Packages:SMD-1206" V 4905 2700 30  0001 C CNN
F 3 "" H 4975 2700 30  0000 C CNN
	1    4975 2700
	1    0    0    -1  
$EndComp
$Comp
L R R11
U 1 1 5435ADF9
P 5375 2450
F 0 "R11" V 5455 2450 40  0000 C CNN
F 1 "127k" V 5382 2451 40  0000 C CNN
F 2 "SMD_Packages:SMD-0603" V 5305 2450 30  0001 C CNN
F 3 "" H 5375 2450 30  0000 C CNN
	1    5375 2450
	0    1    1    0   
$EndComp
$Comp
L R R4
U 1 1 5435B151
P 3900 2350
F 0 "R4" V 3980 2350 40  0000 C CNN
F 1 "R*" V 3907 2351 40  0000 C CNN
F 2 "SMD_Packages:SMD-0805" V 3830 2350 30  0001 C CNN
F 3 "" H 3900 2350 30  0000 C CNN
	1    3900 2350
	0    1    1    0   
$EndComp
$Comp
L GND #PWR03
U 1 1 5435C168
P 4750 3050
F 0 "#PWR03" H 4750 3050 30  0001 C CNN
F 1 "GND" H 4750 2980 30  0001 C CNN
F 2 "" H 4750 3050 60  0000 C CNN
F 3 "" H 4750 3050 60  0000 C CNN
	1    4750 3050
	1    0    0    -1  
$EndComp
$Comp
L R R6
U 1 1 5435CB7B
P 3900 2750
F 0 "R6" V 3980 2750 40  0000 C CNN
F 1 "10k" V 3907 2751 40  0000 C CNN
F 2 "SMD_Packages:SMD-1206" V 3830 2750 30  0001 C CNN
F 3 "" H 3900 2750 30  0000 C CNN
	1    3900 2750
	0    1    1    0   
$EndComp
$Comp
L R R5
U 1 1 5435D675
P 3900 2550
F 0 "R5" V 3980 2550 40  0000 C CNN
F 1 "R*" V 3907 2551 40  0000 C CNN
F 2 "SMD_Packages:SMD-0805" V 3830 2550 30  0001 C CNN
F 3 "" H 3900 2550 30  0000 C CNN
	1    3900 2550
	0    1    1    0   
$EndComp
$Comp
L Crystal_generator QG1
U 1 1 5435E1FA
P 6800 1200
F 0 "QG1" H 6800 1575 60  0000 C CNN
F 1 "16MHz" H 6850 900 60  0000 C CNN
F 2 "hetii:QG-14_300" H 6850 1200 60  0001 C CNN
F 3 "" H 6850 1200 60  0000 C CNN
	1    6800 1200
	1    0    0    -1  
$EndComp
$Comp
L C C7
U 1 1 5435F6E1
P 6250 1200
F 0 "C7" H 6250 1300 40  0000 L CNN
F 1 "100nF" H 6256 1115 40  0000 L CNN
F 2 "SMD_Packages:SMD-1206" H 6288 1050 30  0001 C CNN
F 3 "" H 6250 1200 60  0000 C CNN
	1    6250 1200
	1    0    0    -1  
$EndComp
Text Label 7250 1400 0    39   ~ 0
XTAL1
$Comp
L GND #PWR04
U 1 1 5435F875
P 6250 1500
F 0 "#PWR04" H 6250 1500 30  0001 C CNN
F 1 "GND" H 6250 1430 30  0001 C CNN
F 2 "" H 6250 1500 60  0000 C CNN
F 3 "" H 6250 1500 60  0000 C CNN
	1    6250 1500
	1    0    0    -1  
$EndComp
Text Label 3600 1900 0    39   ~ 0
XTAL1
Entry Wire Line
	6150 650  6250 750 
Text Label 6250 1000 1    60   ~ 0
+5V
$Comp
L BC817-40 Q1
U 1 1 54366C22
P 5025 3675
F 0 "Q1" H 5025 3526 40  0000 R CNN
F 1 "BC817-40" H 5025 3825 40  0000 R CNN
F 2 "SMD_Packages:SOT-23" H 4825 3777 29  0000 C CNN
F 3 "" H 5025 3675 60  0000 C CNN
	1    5025 3675
	-1   0    0    -1  
$EndComp
$Comp
L GND #PWR05
U 1 1 54366F0B
P 4925 3975
F 0 "#PWR05" H 4925 3975 30  0001 C CNN
F 1 "GND" H 4925 3905 30  0001 C CNN
F 2 "" H 4925 3975 60  0000 C CNN
F 3 "" H 4925 3975 60  0000 C CNN
	1    4925 3975
	1    0    0    -1  
$EndComp
$Comp
L C C6
U 1 1 54366FE7
P 5725 3200
F 0 "C6" H 5725 3300 40  0000 L CNN
F 1 "100nF" H 5731 3115 40  0000 L CNN
F 2 "SMD_Packages:SMD-1206" H 5763 3050 30  0001 C CNN
F 3 "" H 5725 3200 60  0000 C CNN
	1    5725 3200
	-1   0    0    1   
$EndComp
$Comp
L INDUCTOR L2
U 1 1 54367236
P 4325 3050
F 0 "L2" V 4275 3050 40  0000 C CNN
F 1 "10uH" V 4425 3050 40  0000 C CNN
F 2 "SMD_Packages:SMD-1206" H 4325 3050 60  0001 C CNN
F 3 "" H 4325 3050 60  0000 C CNN
	1    4325 3050
	1    0    0    -1  
$EndComp
$Comp
L R R7
U 1 1 5436741B
P 4675 3350
F 0 "R7" V 4600 3350 40  0000 C CNN
F 1 "470" V 4682 3351 40  0000 C CNN
F 2 "SMD_Packages:SMD-1206" V 4605 3350 30  0001 C CNN
F 3 "" H 4675 3350 30  0000 C CNN
	1    4675 3350
	0    1    1    0   
$EndComp
$Comp
L R R10
U 1 1 5436767C
P 5300 3350
F 0 "R10" V 5380 3350 40  0000 C CNN
F 1 "10k" V 5307 3351 40  0000 C CNN
F 2 "SMD_Packages:SMD-0603" V 5230 3350 30  0001 C CNN
F 3 "" H 5300 3350 30  0000 C CNN
	1    5300 3350
	0    1    1    0   
$EndComp
$Comp
L R R8
U 1 1 54367F44
P 4675 3475
F 0 "R8" V 4755 3475 40  0000 C CNN
F 1 "470" V 4682 3476 40  0000 C CNN
F 2 "SMD_Packages:SMD-0603" V 4605 3475 30  0001 C CNN
F 3 "" H 4675 3475 30  0000 C CNN
	1    4675 3475
	0    1    1    0   
$EndComp
$Comp
L CONN_01X01 P2
U 1 1 54368D7A
P 6025 2450
F 0 "P2" H 6025 2550 50  0000 C CNN
F 1 "Input signal" H 6025 2350 50  0000 C CNN
F 2 "Pin_Headers:Pin_Header_Angled_1x01" H 6025 2450 60  0001 C CNN
F 3 "" H 6025 2450 60  0000 C CNN
	1    6025 2450
	1    0    0    -1  
$EndComp
$Comp
L DIODE D4
U 1 1 54369318
P 5550 3675
F 0 "D4" H 5700 3575 40  0000 C CNN
F 1 "1n4148" H 5475 3575 40  0000 C CNN
F 2 "SMD_Packages:SMD-1206" H 5550 3675 60  0001 C CNN
F 3 "" H 5550 3675 60  0000 C CNN
	1    5550 3675
	0    1    1    0   
$EndComp
$Comp
L DIODE D5
U 1 1 543698E1
P 5725 3675
F 0 "D5" H 5575 3575 40  0000 C CNN
F 1 "1n4148" H 5800 3575 40  0000 C CNN
F 2 "SMD_Packages:SMD-1206" H 5725 3675 60  0001 C CNN
F 3 "" H 5725 3675 60  0000 C CNN
	1    5725 3675
	0    -1   -1   0   
$EndComp
NoConn ~ 1700 2650
NoConn ~ 1700 2750
NoConn ~ 3600 2000
$Comp
L PWR_FLAG #FLG06
U 1 1 5436BD45
P 1100 900
F 0 "#FLG06" H 1100 995 30  0001 C CNN
F 1 "PWR_FLAG" H 1100 1080 30  0000 C CNN
F 2 "" H 1100 900 60  0000 C CNN
F 3 "" H 1100 900 60  0000 C CNN
	1    1100 900 
	1    0    0    -1  
$EndComp
NoConn ~ 7250 1000
NoConn ~ 3600 3400
NoConn ~ 3600 3500
Entry Wire Line
	3850 1900 3950 1800
$Comp
L R R12
U 1 1 5437211F
P 5725 2700
F 0 "R12" V 5805 2700 40  0000 C CNN
F 1 "100" V 5732 2701 40  0000 C CNN
F 2 "SMD_Packages:SMD-0603" V 5655 2700 30  0001 C CNN
F 3 "" H 5725 2700 30  0000 C CNN
	1    5725 2700
	-1   0    0    1   
$EndComp
Entry Wire Line
	7425 1400 7525 1300
$Comp
L PWR_FLAG #FLG07
U 1 1 54379B4B
P 650 900
F 0 "#FLG07" H 650 995 30  0001 C CNN
F 1 "PWR_FLAG" H 650 1080 30  0000 C CNN
F 2 "" H 650 900 60  0000 C CNN
F 3 "" H 650 900 60  0000 C CNN
	1    650  900 
	1    0    0    -1  
$EndComp
Text Label 650  1125 1    60   ~ 0
AVCC
Text Label 1700 1600 2    60   ~ 0
AVCC
$Comp
L R R2
U 1 1 5437ED32
P 3200 3925
F 0 "R2" V 3280 3925 40  0000 C CNN
F 1 "68" V 3207 3926 40  0000 C CNN
F 2 "SMD_Packages:SMD-1206" V 3130 3925 30  0001 C CNN
F 3 "" H 3200 3925 30  0000 C CNN
	1    3200 3925
	0    -1   -1   0   
$EndComp
$Comp
L R R3
U 1 1 5437F3E5
P 3200 4050
F 0 "R3" V 3280 4050 40  0000 C CNN
F 1 "68" V 3207 4051 40  0000 C CNN
F 2 "SMD_Packages:SMD-1206" V 3130 4050 30  0001 C CNN
F 3 "" H 3200 4050 30  0000 C CNN
	1    3200 4050
	0    1    1    0   
$EndComp
$Comp
L ZENER D2
U 1 1 5437F427
P 2875 4450
F 0 "D2" H 2875 4550 50  0000 C CNN
F 1 "3,6V" H 2875 4350 40  0000 C CNN
F 2 "SMD_Packages:SMD-1206" H 2875 4450 60  0001 C CNN
F 3 "" H 2875 4450 60  0000 C CNN
	1    2875 4450
	0    -1   -1   0   
$EndComp
$Comp
L ZENER D1
U 1 1 5437F51A
P 2600 4450
F 0 "D1" H 2600 4550 50  0000 C CNN
F 1 "3,6V" H 2600 4350 40  0000 C CNN
F 2 "SMD_Packages:SMD-1206" H 2600 4450 60  0001 C CNN
F 3 "" H 2600 4450 60  0000 C CNN
	1    2600 4450
	0    -1   -1   0   
$EndComp
$Comp
L R R1
U 1 1 54380864
P 2350 3800
F 0 "R1" V 2430 3800 40  0000 C CNN
F 1 "1,5k" V 2357 3801 40  0000 C CNN
F 2 "SMD_Packages:SMD-0603" V 2280 3800 30  0001 C CNN
F 3 "" H 2350 3800 30  0000 C CNN
	1    2350 3800
	0    1    1    0   
$EndComp
Text Label 1850 3800 0    60   ~ 0
+5V
$Comp
L USB-MINI-B CON1
U 1 1 54382335
P 1125 4350
F 0 "CON1" H 875 4800 60  0000 C CNN
F 1 "USB-MINI-B" H 1400 4800 60  0000 C CNN
F 2 "Connect:USB_MINI_B" H 1125 4350 60  0001 C CNN
F 3 "" H 1125 4350 60  0000 C CNN
	1    1125 4350
	-1   0    0    -1  
$EndComp
$Comp
L GND #PWR08
U 1 1 543852D2
P 1675 4825
F 0 "#PWR08" H 1675 4825 30  0001 C CNN
F 1 "GND" H 1675 4755 30  0001 C CNN
F 2 "" H 1675 4825 60  0000 C CNN
F 3 "" H 1675 4825 60  0000 C CNN
	1    1675 4825
	1    0    0    -1  
$EndComp
$Comp
L C C4
U 1 1 54386C92
P 1850 4450
F 0 "C4" H 1975 4450 40  0000 L CNN
F 1 "100nF" H 1856 4365 40  0000 L CNN
F 2 "SMD_Packages:SMD-1206" H 1888 4300 30  0001 C CNN
F 3 "" H 1850 4450 60  0000 C CNN
	1    1850 4450
	1    0    0    -1  
$EndComp
$Comp
L CONN_01X06 P3
U 1 1 54388CE2
P 8075 1200
F 0 "P3" H 8075 1550 50  0000 C CNN
F 1 "ISP Programmer" V 8175 1200 50  0000 C CNN
F 2 "Pin_Headers:Pin_Header_Straight_1x06" H 8075 1200 60  0001 C CNN
F 3 "" H 8075 1200 60  0000 C CNN
	1    8075 1200
	0    -1   1    0   
$EndComp
Entry Wire Line
	7725 650  7825 750 
Entry Wire Line
	7825 650  7925 750 
Entry Wire Line
	7925 650  8025 750 
Entry Wire Line
	8025 650  8125 750 
Entry Wire Line
	8125 650  8225 750 
Entry Wire Line
	8225 650  8325 750 
Text Label 7825 1000 1    60   ~ 0
+5V
Text Label 8325 1000 1    60   ~ 0
GND
Text Label 8025 1000 1    60   ~ 0
mosi
Text Label 7925 1000 1    60   ~ 0
miso
Text Label 8125 1000 1    60   ~ 0
clk
Entry Wire Line
	3850 1700 3950 1600
Text Label 3600 1700 0    60   ~ 0
miso
Text Label 8225 1000 1    60   ~ 0
reset
$Comp
L GND #PWR09
U 1 1 54390E71
P 875 1125
F 0 "#PWR09" H 875 1125 30  0001 C CNN
F 1 "GND" H 875 1055 30  0001 C CNN
F 2 "" H 875 1125 60  0000 C CNN
F 3 "" H 875 1125 60  0000 C CNN
	1    875  1125
	1    0    0    -1  
$EndComp
Text Label 875  1125 1    60   ~ 0
GND
$Comp
L CONN_01X02 P1
U 1 1 54394FDD
P 4000 2950
F 0 "P1" H 4000 3100 50  0000 C CNN
F 1 "RS232" V 4100 2950 50  0000 C CNN
F 2 "Pin_Headers:Pin_Header_Straight_1x02" H 4000 2950 60  0001 C CNN
F 3 "" H 4000 2950 60  0000 C CNN
	1    4000 2950
	1    0    0    -1  
$EndComp
$Comp
L PWR_FLAG #FLG010
U 1 1 54390434
P 875 900
F 0 "#FLG010" H 875 995 30  0001 C CNN
F 1 "PWR_FLAG" H 875 1080 30  0000 C CNN
F 2 "" H 875 900 60  0000 C CNN
F 3 "" H 875 900 60  0000 C CNN
	1    875  900 
	1    0    0    -1  
$EndComp
$Comp
L C C8
U 1 1 5439A1F2
P 850 2100
F 0 "C8" H 850 2200 40  0000 L CNN
F 1 "100nF" H 856 2015 40  0000 L CNN
F 2 "SMD_Packages:SMD-1206" H 888 1950 30  0001 C CNN
F 3 "" H 850 2100 60  0000 C CNN
	1    850  2100
	1    0    0    -1  
$EndComp
$Comp
L GND #PWR011
U 1 1 5439B3EB
P 575 4825
F 0 "#PWR011" H 575 4825 30  0001 C CNN
F 1 "GND" H 575 4755 30  0001 C CNN
F 2 "" H 575 4825 60  0000 C CNN
F 3 "" H 575 4825 60  0000 C CNN
	1    575  4825
	1    0    0    -1  
$EndComp
$Comp
L R R13
U 1 1 5439DE72
P 1100 1450
F 0 "R13" V 1180 1450 40  0000 C CNN
F 1 "0" V 1107 1451 40  0000 C CNN
F 2 "SMD_Packages:SMD-1206" V 1030 1450 30  0001 C CNN
F 3 "" H 1100 1450 30  0000 C CNN
	1    1100 1450
	1    0    0    -1  
$EndComp
$Comp
L GND #PWR012
U 1 1 5439EFFA
P 3700 2800
F 0 "#PWR012" H 3700 2800 30  0001 C CNN
F 1 "GND" H 3700 2730 30  0001 C CNN
F 2 "" H 3700 2800 60  0000 C CNN
F 3 "" H 3700 2800 60  0000 C CNN
	1    3700 2800
	1    0    0    -1  
$EndComp
$Comp
L ATMEGA328P-A IC1
U 1 1 54356E63
P 2600 2400
F 0 "IC1" H 1850 3650 40  0000 L BNN
F 1 "ATMEGA328P-A" H 3000 1025 40  0000 L BNN
F 2 "SMD_Packages:TQFP-32" H 2600 2400 30  0000 C CIN
F 3 "" H 2600 2400 60  0000 C CNN
	1    2600 2400
	1    0    0    -1  
$EndComp
Wire Wire Line
	4775 1000 5050 1000
Wire Bus Line
	3950 650  3950 1800
Wire Wire Line
	4775 750  4775 2275
Connection ~ 4925 1000
Wire Wire Line
	5100 1350 4975 1350
Wire Wire Line
	4975 1350 4975 2200
Wire Wire Line
	4975 2200 5175 2200
Wire Wire Line
	1700 3400 1700 3800
Connection ~ 1700 3500
Connection ~ 1700 3600
Wire Wire Line
	1700 1000 1700 1400
Wire Wire Line
	1700 1900 1600 1900
Wire Wire Line
	1350 2300 1350 2400
Wire Wire Line
	1350 1900 1350 1600
Wire Wire Line
	1350 1600 1700 1600
Wire Wire Line
	1100 1000 1700 1000
Connection ~ 1700 1300
Wire Wire Line
	850  2300 1600 2300
Connection ~ 1350 2300
Wire Wire Line
	1100 900  1100 1900
Connection ~ 1350 1000
Wire Wire Line
	4150 2450 5125 2450
Wire Wire Line
	4525 2450 4525 2550
Connection ~ 4975 2450
Wire Wire Line
	4750 2550 4750 2450
Connection ~ 4750 2450
Wire Wire Line
	4150 2150 4150 2550
Wire Wire Line
	4150 2150 3600 2150
Connection ~ 4525 2450
Wire Wire Line
	4525 2950 4975 2950
Connection ~ 4750 2950
Wire Wire Line
	4750 2950 4750 3050
Wire Wire Line
	3600 2750 3650 2750
Wire Wire Line
	3600 2350 3650 2350
Connection ~ 4150 2450
Wire Wire Line
	3650 2550 3600 2550
Wire Wire Line
	6250 1000 6350 1000
Wire Wire Line
	6250 1400 6350 1400
Wire Wire Line
	6250 1400 6250 1500
Wire Wire Line
	4325 2750 4150 2750
Wire Wire Line
	5550 2275 5550 2200
Wire Wire Line
	4325 2275 5550 2275
Wire Wire Line
	4675 2275 4675 2200
Wire Wire Line
	4325 2750 4325 2275
Connection ~ 4675 2275
Connection ~ 4775 2275
Wire Wire Line
	4925 3875 4925 3975
Wire Wire Line
	4325 3350 4425 3350
Wire Wire Line
	4925 3350 4925 3475
Wire Wire Line
	4925 3350 5050 3350
Wire Wire Line
	3725 3475 4425 3475
Wire Wire Line
	5625 2450 5825 2450
Connection ~ 5550 3875
Wire Wire Line
	5225 3675 5375 3675
Wire Wire Line
	5375 3675 5375 3475
Connection ~ 5550 3475
Wire Wire Line
	5550 3350 5550 3475
Connection ~ 4150 2350
Wire Wire Line
	7250 1400 7425 1400
Connection ~ 5725 2450
Wire Wire Line
	5725 3475 5725 3400
Wire Wire Line
	5375 3475 5725 3475
Wire Wire Line
	4925 3875 5725 3875
Wire Wire Line
	5725 2950 5725 3000
Wire Wire Line
	3600 1300 3850 1300
Wire Wire Line
	3850 1400 3600 1400
Wire Wire Line
	3850 1500 3600 1500
Wire Wire Line
	3850 1600 3600 1600
Wire Wire Line
	3850 1800 3600 1800
Wire Wire Line
	3850 1900 3600 1900
Wire Wire Line
	4675 750  4675 1000
Connection ~ 4775 1000
Wire Wire Line
	5425 1000 5425 750 
Wire Wire Line
	5550 1000 5550 750 
Wire Wire Line
	5800 1000 5800 750 
Wire Wire Line
	5925 1000 5925 750 
Wire Wire Line
	6250 1000 6250 750 
Wire Wire Line
	5100 1350 5100 1000
Wire Wire Line
	5100 1000 5300 1000
Connection ~ 5175 1000
Wire Wire Line
	5175 1000 5175 750 
Wire Bus Line
	1800 650  8225 650 
Wire Bus Line
	1800 650  1800 900 
Wire Bus Line
	7525 650  7525 1300
Connection ~ 1100 1000
Wire Wire Line
	650  900  650  1125
Wire Wire Line
	1950 3925 2950 3925
Wire Wire Line
	2600 3800 2600 4250
Wire Wire Line
	2050 4050 2950 4050
Wire Wire Line
	3600 3600 3600 3925
Wire Wire Line
	3600 3925 3450 3925
Connection ~ 2600 3925
Wire Wire Line
	2100 3800 1850 3800
Connection ~ 575  4500
Connection ~ 575  4200
Connection ~ 575  4650
Wire Wire Line
	1675 4050 1850 4050
Wire Wire Line
	1850 3800 1850 4250
Wire Wire Line
	1950 3925 1950 4200
Wire Wire Line
	1950 4200 1675 4200
Wire Wire Line
	2050 4350 1675 4350
Wire Wire Line
	1675 4650 2875 4650
Connection ~ 2600 4650
Wire Wire Line
	2050 4050 2050 4350
Wire Wire Line
	2875 4250 2875 4050
Connection ~ 2875 4050
Connection ~ 1675 4650
Connection ~ 1850 4050
Connection ~ 1850 4650
Wire Wire Line
	7825 1000 7825 750 
Wire Wire Line
	7925 1000 7925 750 
Wire Wire Line
	8025 1000 8025 750 
Wire Wire Line
	8125 1000 8125 750 
Wire Wire Line
	8225 1000 8225 750 
Wire Wire Line
	8325 1000 8325 750 
Wire Wire Line
	3600 1700 3850 1700
Wire Wire Line
	575  4050 575  4825
Wire Wire Line
	875  900  875  1125
Wire Wire Line
	3600 2900 3800 2900
Wire Wire Line
	3800 3000 3600 3000
Wire Wire Line
	1675 4500 1675 4825
Connection ~ 1100 2300
Wire Wire Line
	1100 1900 850  1900
Connection ~ 1100 1200
Connection ~ 1100 1700
Wire Wire Line
	3600 2250 3700 2250
Wire Wire Line
	3700 2250 3700 2800
Wire Wire Line
	3700 2450 3600 2450
Wire Wire Line
	3700 2650 3600 2650
Connection ~ 3700 2450
Connection ~ 3700 2650
Wire Wire Line
	3600 3100 3675 3100
Wire Wire Line
	3675 3100 3675 4050
Wire Wire Line
	3675 4050 3450 4050
Wire Wire Line
	3600 3200 3800 3200
Wire Wire Line
	3600 3300 3725 3300
Wire Wire Line
	3725 3300 3725 3475
$Comp
L CONN_01X01 P4
U 1 1 543A0CF8
P 4000 3200
F 0 "P4" H 4000 3300 50  0000 C CNN
F 1 "Button" V 4100 3200 50  0000 C CNN
F 2 "Pin_Headers:Pin_Header_Straight_1x01" H 4000 3200 60  0001 C CNN
F 3 "" H 4000 3200 60  0000 C CNN
	1    4000 3200
	1    0    0    -1  
$EndComp
$EndSCHEMATC
